TeacupCerberus • TeacupCerberus
…
filter_sigma_ecdf(Sigma, 0.95, use_names=TRUE)
#> # A tibble: 186 x 3
#> # Groups:   Coord1 [25]
#>    Coord1 Coord2 ECDF0
#>    <chr>  <chr>  <dbl>
#>  1 c1     c4         0
#>  2 c1     d10        1
#>  3 c1     d14        0
#>  4 c10    c5         0
#>  5 c10    c6         0
#>  6 c10    d3         0
#>  7 c2     c3         1
#>  8 c2     c4         1
#>  9 c2     c5         1
#> 10 c2     c6         0
#> # … with 176 more rows
…
